Week 4: Data visualisation
…
The position argument can also be used to create three different types of bar chart:

“stack” creates a stacked bar chart

“fill” creates a proportional bar chart

“dodge” creates a grouped bar chart

Let’s create all 3 of these for the following dataset:

gss_cat %>% 
  count(relig, marital)

# A tibble: 78 × 3
   relig      marital           n
   <fct>      <fct>         <int>
 1 No answer  No answer         4
 2 No answer  Never married    22
 3 No answer  Separated         3
 4 No answer  Divorced         13
 5 No answer  Widowed           7
 6 No answer  Married          44
 7 Don't know Never married     6
 8 Don't know Separated         3
 9 Don't know Divorced          1
10 Don't know Married           5
# … with 68 more rows
…
