Week 3: Data science with the tidyverse
…
starwars

# A tibble: 87 × 14
   name        height  mass hair_…¹ skin_…² eye_c…³ birth…⁴ sex   gender homew…⁵
   <chr>        <int> <dbl> <chr>   <chr>   <chr>     <dbl> <chr> <chr>  <chr>  
 1 Luke Skywa…    172    77 blond   fair    blue       19   male  mascu… Tatooi…
 2 C-3PO          167    75 <NA>    gold    yellow    112   none  mascu… Tatooi…
 3 R2-D2           96    32 <NA>    white,… red        33   none  mascu… Naboo  
 4 Darth Vader    202   136 none    white   yellow     41.9 male  mascu… Tatooi…
 5 Leia Organa    150    49 brown   light   brown      19   fema… femin… Aldera…
 6 Owen Lars      178   120 brown,… light   blue       52   male  mascu… Tatooi…
 7 Beru White…    165    75 brown   light   blue       47   fema… femin… Tatooi…
 8 R5-D4           97    32 <NA>    white,… red        NA   none  mascu… Tatooi…
 9 Biggs Dark…    183    84 black   light   brown      24   male  mascu… Tatooi…
10 Obi-Wan Ke…    182    77 auburn… fair    blue-g…    57   male  mascu… Stewjon
# … with 77 more rows, 4 more variables: species <chr>, films <list>,
#   vehicles <list>, starships <list>, and abbreviated variable names
#   ¹​hair_color, ²​skin_color, ³​eye_color, ⁴​birth_year, ⁵​homeworld
…
select(starwars, name)

# A tibble: 87 × 1
   name              
   <chr>             
 1 Luke Skywalker    
 2 C-3PO             
 3 R2-D2             
 4 Darth Vader       
 5 Leia Organa       
 6 Owen Lars         
 7 Beru Whitesun lars
 8 R5-D4             
 9 Biggs Darklighter 
10 Obi-Wan Kenobi    
# … with 77 more rows
…
That’s fine.

It’s just sugar to sweeten the already lovely R.

However, you need a basic understanding of it to read most documentation pages in the tidyverse (and beyond).

Hierarchical counting

We can count by as many attributes as we like:

msleep %>% 
  count(order, vore, sort = TRUE)

# A tibble: 32 × 3
   order          vore        n
   <chr>          <chr>   <int>
 1 Rodentia       herbi      16
 2 Carnivora      carni      12
 3 Primates       omni       10
 4 Artiodactyla   herbi       5
 5 Cetacea        carni       3
 6 Perissodactyla herbi       3
 7 Rodentia       <NA>        3
 8 Soricomorpha   omni        3
 9 Chiroptera     insecti     2
10 Hyracoidea     herbi       2
# … with 22 more rows
…
Before we can create a bar chart of the mean sleep time per diet we need to calculate these values!

This means introducing the group_by() function for calculating in-group measures.

Add groups to data

2. Calculate in group measures

13 Ungroup the data when finished.

msleep %>% 
  group_by(vore)

# A tibble: 83 × 11
# Groups:   vore [5]
   name         genus vore  order conse…¹ sleep…² sleep…³ sleep…⁴ awake  brainwt
   <chr>        <chr> <chr> <chr> <chr>     <dbl>   <dbl>   <dbl> <dbl>    <dbl>
 1 Cheetah      Acin… carni Carn… lc         12.1    NA    NA      11.9 NA      
 2 Owl monkey   Aotus omni  Prim… <NA>       17       1.8  NA       7    0.0155 
 3 Mountain be… Aplo… herbi Rode… nt         14.4     2.4  NA       9.6 NA      
 4 Greater sho… Blar… omni  Sori… lc         14.9     2.3   0.133   9.1  0.00029
 5 Cow          Bos   herbi Arti… domest…     4       0.7   0.667  20    0.423  
 6 Three-toed … Brad… herbi Pilo… <NA>       14.4     2.2   0.767   9.6 NA      
 7 Northern fu… Call… carni Carn… vu          8.7     1.4   0.383  15.3 NA      
 8 Vesper mouse Calo… <NA>  Rode… <NA>        7      NA    NA      17   NA      
 9 Dog          Canis carni Carn… domest…    10.1     2.9   0.333  13.9  0.07   
10 Roe deer     Capr… herbi Arti… lc          3      NA    NA      21    0.0982 
# … with 73 more rows, 1 more variable: bodywt <dbl>, and abbreviated variable
#   names ¹​conservation, ²​sleep_total, ³​sleep_rem, ⁴​sleep_cycle
…
This means introducing the group_by() function for calculating in-group measures.

Add groups to data

2. Calculate in group measures

mutate() leaves all rows

3. Ungroup the data when finished.

msleep %>% 
  group_by(vore) %>% 
  mutate(mean_sleep_total = mean(sleep_total))

# A tibble: 83 × 12
# Groups:   vore [5]
   name         genus vore  order conse…¹ sleep…² sleep…³ sleep…⁴ awake  brainwt
   <chr>        <chr> <chr> <chr> <chr>     <dbl>   <dbl>   <dbl> <dbl>    <dbl>
 1 Cheetah      Acin… carni Carn… lc         12.1    NA    NA      11.9 NA      
 2 Owl monkey   Aotus omni  Prim… <NA>       17       1.8  NA       7    0.0155 
 3 Mountain be… Aplo… herbi Rode… nt         14.4     2.4  NA       9.6 NA      
 4 Greater sho… Blar… omni  Sori… lc         14.9     2.3   0.133   9.1  0.00029
 5 Cow          Bos   herbi Arti… domest…     4       0.7   0.667  20    0.423  
 6 Three-toed … Brad… herbi Pilo… <NA>       14.4     2.2   0.767   9.6 NA      
 7 Northern fu… Call… carni Carn… vu          8.7     1.4   0.383  15.3 NA      
 8 Vesper mouse Calo… <NA>  Rode… <NA>        7      NA    NA      17   NA      
 9 Dog          Canis carni Carn… domest…    10.1     2.9   0.333  13.9  0.07   
10 Roe deer     Capr… herbi Arti… lc          3      NA    NA      21    0.0982 
# … with 73 more rows, 2 more variables: bodywt <dbl>, mean_sleep_total <dbl>,
#   and abbreviated variable names ¹​conservation, ²​sleep_total, ³​sleep_rem,
#   ⁴​sleep_cycle
…
We need to write a function here.

That’s usually achieved with the ~ shorthand

~ . / 24

msleep %>% 
  mutate(across(argument_1, argument_2))

msleep %>% 
  mutate(across(starts_with("sleep"), 
                ~ . / 24))

# A tibble: 83 × 11
   name        genus vore  order conse…¹ sleep…² sleep…³ sleep_…⁴ awake  brainwt
   <chr>       <chr> <chr> <chr> <chr>     <dbl>   <dbl>    <dbl> <dbl>    <dbl>
 1 Cheetah     Acin… carni Carn… lc        0.504 NA      NA        11.9 NA      
 2 Owl monkey  Aotus omni  Prim… <NA>      0.708  0.075  NA         7    0.0155 
 3 Mountain b… Aplo… herbi Rode… nt        0.6    0.1    NA         9.6 NA      
 4 Greater sh… Blar… omni  Sori… lc        0.621  0.0958  0.00556   9.1  0.00029
 5 Cow         Bos   herbi Arti… domest…   0.167  0.0292  0.0278   20    0.423  
 6 Three-toed… Brad… herbi Pilo… <NA>      0.6    0.0917  0.0319    9.6 NA      
 7 Northern f… Call… carni Carn… vu        0.362  0.0583  0.0160   15.3 NA      
 8 Vesper mou… Calo… <NA>  Rode… <NA>      0.292 NA      NA        17   NA      
 9 Dog         Canis carni Carn… domest…   0.421  0.121   0.0139   13.9  0.07   
10 Roe deer    Capr… herbi Arti… lc        0.125 NA      NA        21    0.0982 
# … with 73 more rows, 1 more variable: bodywt <dbl>, and abbreviated variable
#   names ¹​conservation, ²​sleep_total, ³​sleep_rem, ⁴​sleep_cycle
…
The tidyverse gives us an entire package called {string} for parsing/manipulating strings.

Matching text in R (II)

We can search the beginning of the strings with str_starts().

disease_burden_raw %>% 
  filter(str_starts(location_name, "World Bank"))

# A tibble: 2,880 × 16
   measu…¹ measu…² locat…³ locat…⁴ sex_id sex_n…⁵ age_id age_n…⁶ cause…⁷ cause…⁸
     <dbl> <chr>     <dbl> <chr>    <dbl> <chr>    <dbl> <chr>     <dbl> <chr>  
 1       1 Deaths    44575 World …      3 Both        22 All ag…     409 Non-co…
 2       1 Deaths    44575 World …      3 Both        22 All ag…     409 Non-co…
 3       1 Deaths    44575 World …      3 Both        22 All ag…     409 Non-co…
 4       1 Deaths    44575 World …      3 Both        22 All ag…     294 All ca…
 5       1 Deaths    44575 World …      3 Both        22 All ag…     294 All ca…
 6       1 Deaths    44575 World …      3 Both        22 All ag…     294 All ca…
 7       1 Deaths    44575 World …      3 Both        22 All ag…     295 Commun…
 8       1 Deaths    44575 World …      3 Both        22 All ag…     295 Commun…
 9       1 Deaths    44575 World …      3 Both        22 All ag…     295 Commun…
10       1 Deaths    44576 World …      3 Both        22 All ag…     294 All ca…
# … with 2,870 more rows, 6 more variables: metric_id <dbl>, metric_name <chr>,
#   year <dbl>, val <dbl>, upper <dbl>, lower <dbl>, and abbreviated variable
#   names ¹​measure_id, ²​measure_name, ³​location_id, ⁴​location_name, ⁵​sex_name,
#   ⁶​age_name, ⁷​cause_id, ⁸​cause_name

Matching text in R (II)

For more complex string matching we have to make use of REGEX.

REGEX stands for regular expressions and is an approach to string manipulation that is implemented in all programming languages.

We can use regular expressions in the pattern argument for all {stringr} functions.

regex101.com is a really useful tool for building up complex regular expressions.

disease_burden_raw %>% 
  filter(str_detect(location_name, "^World Bank"))

# A tibble: 2,880 × 16
   measu…¹ measu…² locat…³ locat…⁴ sex_id sex_n…⁵ age_id age_n…⁶ cause…⁷ cause…⁸
     <dbl> <chr>     <dbl> <chr>    <dbl> <chr>    <dbl> <chr>     <dbl> <chr>  
 1       1 Deaths    44575 World …      3 Both        22 All ag…     409 Non-co…
 2       1 Deaths    44575 World …      3 Both        22 All ag…     409 Non-co…
 3       1 Deaths    44575 World …      3 Both        22 All ag…     409 Non-co…
 4       1 Deaths    44575 World …      3 Both        22 All ag…     294 All ca…
 5       1 Deaths    44575 World …      3 Both        22 All ag…     294 All ca…
 6       1 Deaths    44575 World …      3 Both        22 All ag…     294 All ca…
 7       1 Deaths    44575 World …      3 Both        22 All ag…     295 Commun…
 8       1 Deaths    44575 World …      3 Both        22 All ag…     295 Commun…
 9       1 Deaths    44575 World …      3 Both        22 All ag…     295 Commun…
10       1 Deaths    44576 World …      3 Both        22 All ag…     294 All ca…
# … with 2,870 more rows, 6 more variables: metric_id <dbl>, metric_name <chr>,
#   year <dbl>, val <dbl>, upper <dbl>, lower <dbl>, and abbreviated variable
#   names ¹​measure_id, ²​measure_name, ³​location_id, ⁴​location_name, ⁵​sex_name,
#   ⁶​age_name, ⁷​cause_id, ⁸​cause_name
…
