Week 5: Surveys
…
glimpse(adulthood_raw_codebook)

Rows: 328
Columns: 6
$ `Variable Name`      <chr> "StartDate", "EndDate", "Status", "Progress", "Du…
$ `Question text`      <chr> "Start Date", "End Date", "Response Type", "Progr…
$ ...3                 <chr> "n/a", "n/a", "n/a", "n/a", "n/a", "n/a", "n/a", …
$ responses            <chr> "qualtrics variable", "qualtrics variable", "qual…
$ ...5                 <lgl> NA, NA, NA, NA, NA, NA, NA, NA, NA, NA, NA, NA, N…
$ `Survey Question ID` <chr> "{\"ImportId\":\"startDate\"}", "{\"ImportId\":\"…

adulthood_raw_codebook %>% 
  select(`Question text`)

# A tibble: 328 × 1
   `Question text`      
   <chr>                
 1 Start Date           
 2 End Date             
 3 Response Type        
 4 Progress             
 5 Duration (in seconds)
 6 Finished             
 7 Recorded Date        
 8 Response ID          
 9 Recipient Last Name  
10 Recipient First Name 
# … with 318 more rows
…
adulthood_raw_codebook %>% 
  filter(str_detect(question_text, "defining yourself"))

# A tibble: 1 × 6
  variable_name question_text                        x3    respo…¹ x5    surve…²
  <chr>         <chr>                                <chr> <chr>   <lgl> <chr>  
1 IDEA_5        Is this period of your life a time … Thin… 1-stro… NA    "{\"Im…
# … with abbreviated variable names ¹​responses, ²​survey_question_id

idea_responses_raw <- adulthood_raw_data %>% 
  select(ResponseId, starts_with("IDEA_"))
idea_responses_raw

# A tibble: 3,182 × 9
   ResponseId        IDEA_1 IDEA_2 IDEA_3 IDEA_4 IDEA_5 IDEA_6 IDEA_7 IDEA_8
   <chr>              <dbl>  <dbl>  <dbl>  <dbl>  <dbl>  <dbl>  <dbl>  <dbl>
 1 R_BJN3bQqi1zUMid3      3      4      4      3      4      4      4      4
 2 R_2TGbiBXmAtxywsD      4      4      4      4      3      4      4      4
 3 R_12G7bIqN2wB2N65      4      4      4      4      4      4      3      3
 4 R_39pldNoon8CePfP      4      4      3      3      4      4      4      4
 5 R_1QiKb2LdJo1Bhvv      4      4      3      4      3      3      3      4
 6 R_pmwDTZyCyCycXwB      3      4      3      3      4      4      3      2
 7 R_2Quh0h3wxTjZjKP      4      3      4      4      3      4      3      3
 8 R_2CfdmFw1NTliv4e      4      3      3      4      3      2      2      3
 9 R_24kJPxVOxMshN3Q      4      4      3      2      4      4      3      3
10 R_3fv0VeHsW6AvJPk      4      4      2      2      4      4      3      4
# … with 3,172 more rows
…
Unfortunately, the programming solution only works if all columns are labelled.

I’d recommend using the {sjlabelled} package exclusively for extracting question labels from SPSS. It does provide more tools but they’re not compatible with {haven} and also cause conflicts.

Extracting the question label from {haven} output (II)

The sjlabelled::get_label() function generates a named list. We can convert this into a tibble with enframe()

commercial_health_data_qs_raw <- sjlabelled::get_label(commercial_health_data_raw) %>% 
  enframe() %>% 
  rename(question_text = value)
commercial_health_data_qs_raw

# A tibble: 124 × 2
   name   question_text                                                         
   <chr>  <chr>                                                                 
 1 mq01_1 MQ01_1 - Health data collected from patients in hospitals and GP prac…
 2 mq01_2 MQ01_2 - Health data collected from patients in hospitals and GP prac…
 3 mq01_3 MQ01_3 - Health data collected from patients in hospitals and GP prac…
 4 mq02_a MQ02_A - As you may know, the NHS and other health services collect d…
 5 mq02_b MQ02_B - As you may know, the NHS and other health services collect d…
 6 mq02_c MQ02_C - As you may know, the NHS and other health services collect d…
 7 mq02_d MQ02_D - As you may know, the NHS and other health services collect d…
 8 mq02_e MQ02_E - As you may know, the NHS and other health services collect d…
 9 mq03   MQ03 - To what extent, if at all, would you support your health data …
10 mq04_1 MQ04_1 - To what extent do you agree or disagree with the following s…
# … with 114 more rows

Can you help me write some code to remove the question label from the value column?

Extracting the question label from {haven} output (II)

This is one of many ways to tidy up this data:

commercial_health_data_qs <- commercial_health_data_qs_raw %>% 
  mutate(question_text = str_remove(question_text, toupper(name)),
         question_text = str_remove(question_text, " - "),
         question_text = str_remove(question_text, "MQ08A"))
commercial_health_data_qs

# A tibble: 124 × 2
   name   question_text                                                         
   <chr>  <chr>                                                                 
 1 mq01_1 Health data collected from patients in hospitals and GP practices can…
 2 mq01_2 Health data collected from patients in hospitals and GP practices can…
 3 mq01_3 Health data collected from patients in hospitals and GP practices can…
 4 mq02_a As you may know, the NHS and other health services collect data about…
 5 mq02_b As you may know, the NHS and other health services collect data about…
 6 mq02_c As you may know, the NHS and other health services collect data about…
 7 mq02_d As you may know, the NHS and other health services collect data about…
 8 mq02_e As you may know, the NHS and other health services collect data about…
 9 mq03   To what extent, if at all, would you support your health data being a…
10 mq04_1 To what extent do you agree or disagree with the following statements?
# … with 114 more rows

Converting labelled columns to factors

To convert all labelled columns to factors we can use across()

commercial_health_data_factors <- commercial_health_data_raw %>% 
  mutate(across(where(is.labelled), ~as_factor(.x)))
commercial_health_data_factors

# A tibble: 2,017 × 124
   mq01_1   mq01_2 mq01_3 mq02_a mq02_b mq02_c mq02_d mq02_e mq03  mq04_1 mq04_2
   <fct>    <fct>  <fct>  <fct>  <fct>  <fct>  <fct>  <fct>  <fct> <fct>  <fct> 
 1 Heard o… Never… Never… <NA>   <NA>   <NA>   <NA>   Agree… Stro… Stron… Stron…
 2 A great… A gre… A gre… <NA>   Agree… <NA>   <NA>   <NA>   Stro… Neith… Stron…
 3 Just a … A fai… A fai… Agree… <NA>   <NA>   <NA>   <NA>   Tend… Tend … Tend …
 4 A great… A gre… A gre… <NA>   <NA>   <NA>   <NA>   Agree… Neit… Tend … Tend …
 5 Just a … Just … Just … <NA>   <NA>   <NA>   <NA>   Agree… Tend… Neith… Tend …
 6 Just a … A fai… Just … <NA>   <NA>   <NA>   <NA>   Agree… Tend… Tend … Tend …
 7 Just a … A fai… A fai… <NA>   <NA>   <NA>   <NA>   Agree… Neit… Tend … Tend …
 8 Just a … Just … Heard… <NA>   <NA>   <NA>   <NA>   Agree… Neit… Neith… Tend …
 9 Just a … Just … Just … <NA>   <NA>   <NA>   <NA>   Agree… Tend… Tend … Tend …
10 Just a … Just … Just … <NA>   <NA>   Agree… <NA>   <NA>   Tend… Tend … Stron…
# … with 2,007 more rows, and 113 more variables: mq05a <fct>, mq05b <fct>,
#   mq06a <fct>, mq06b <fct>, mq07_a <fct>, mq07_b <fct>, mq08a1 <fct>,
#   mq08a2 <fct>, mq08a3 <fct>, mq08a4 <fct>, mq08a5 <fct>, mq08a6 <fct>,
#   mq08a7 <fct>, mq08a8 <fct>, mq08a9 <fct>, mq08a10 <fct>, mq08a11 <fct>,
#   mq08a12 <fct>, mq08b <fct>, region <fct>, age3 <fct>, sex <fct>,
#   work <fct>, cie <fct>, mshop <fct>, super <fct>, wrkcie <fct>,
#   sgrade <fct>, maritl <fct>, numhhd <fct>, numkid <fct>, numkid2 <fct>, …

Notice how we don’t have a respondent ID column?

Add respondent ID

The row_number() function gives us a neat way to add a respondent ID.

However, it’s not necessarily that clever a solution in terms of anonymisation.

commercial_health_data_clean <- commercial_health_data_factors %>% 
  mutate(respondent_id = row_number()) %>% 
  relocate(respondent_id)
commercial_health_data_clean

# A tibble: 2,017 × 125
   respon…¹ mq01_1 mq01_2 mq01_3 mq02_a mq02_b mq02_c mq02_d mq02_e mq03  mq04_1
      <int> <fct>  <fct>  <fct>  <fct>  <fct>  <fct>  <fct>  <fct>  <fct> <fct> 
 1        1 Heard… Never… Never… <NA>   <NA>   <NA>   <NA>   Agree… Stro… Stron…
 2        2 A gre… A gre… A gre… <NA>   Agree… <NA>   <NA>   <NA>   Stro… Neith…
 3        3 Just … A fai… A fai… Agree… <NA>   <NA>   <NA>   <NA>   Tend… Tend …
 4        4 A gre… A gre… A gre… <NA>   <NA>   <NA>   <NA>   Agree… Neit… Tend …
 5        5 Just … Just … Just … <NA>   <NA>   <NA>   <NA>   Agree… Tend… Neith…
 6        6 Just … A fai… Just … <NA>   <NA>   <NA>   <NA>   Agree… Tend… Tend …
 7        7 Just … A fai… A fai… <NA>   <NA>   <NA>   <NA>   Agree… Neit… Tend …
 8        8 Just … Just … Heard… <NA>   <NA>   <NA>   <NA>   Agree… Neit… Neith…
 9        9 Just … Just … Just … <NA>   <NA>   <NA>   <NA>   Agree… Tend… Tend …
10       10 Just … Just … Just … <NA>   <NA>   Agree… <NA>   <NA>   Tend… Tend …
# … with 2,007 more rows, 114 more variables: mq04_2 <fct>, mq05a <fct>,
#   mq05b <fct>, mq06a <fct>, mq06b <fct>, mq07_a <fct>, mq07_b <fct>,
#   mq08a1 <fct>, mq08a2 <fct>, mq08a3 <fct>, mq08a4 <fct>, mq08a5 <fct>,
#   mq08a6 <fct>, mq08a7 <fct>, mq08a8 <fct>, mq08a9 <fct>, mq08a10 <fct>,
#   mq08a11 <fct>, mq08a12 <fct>, mq08b <fct>, region <fct>, age3 <fct>,
#   sex <fct>, work <fct>, cie <fct>, mshop <fct>, super <fct>, wrkcie <fct>,
#   sgrade <fct>, maritl <fct>, numhhd <fct>, numkid <fct>, numkid2 <fct>, …
…
Commercial Health Data Survey Q4 (II)

What do we need to do to this data so that we can tally responses and visualise it with {ggplot2}?

commercial_health_data_clean %>% 
  select(respondent_id, starts_with("mq04"))

# A tibble: 2,017 × 3
   respondent_id mq04_1                     mq04_2           
           <int> <fct>                      <fct>            
 1             1 Strongly disagree          Strongly disagree
 2             2 Neither agree nor disagree Strongly agree   
 3             3 Tend to agree              Tend to agree    
 4             4 Tend to agree              Tend to agree    
 5             5 Neither agree nor disagree Tend to agree    
 6             6 Tend to agree              Tend to agree    
 7             7 Tend to agree              Tend to agree    
 8             8 Neither agree nor disagree Tend to agree    
 9             9 Tend to agree              Tend to agree    
10            10 Tend to disagree           Strongly disagree
# … with 2,007 more rows
…
Should we include vox ep rank in ratings?!

In principle we could combine:

votes

views

vox ep rank

buffy_raw <- read_csv(here::here("static", "datasets", "buffy", "buffy_data.csv"))
buffy_raw

# A tibble: 144 × 15
   no overal…¹ season no in…² title direc…³ writer air_d…⁴ views…⁵ imdb_…⁶ votes
         <dbl>  <dbl>   <dbl> <chr> <chr>   <chr>  <chr>     <dbl>   <dbl> <dbl>
 1           1      1       1 Welc… Charle… Joss … 3/10/1…    4.59     8    4548
 2           2      1       2 The … John T… Joss … 3/10/1…    4.59     7.8  3952
 3           3      1       3 Witch Stephe… Dana … 3/17/1…    4.63     7.7  3940
 4           4      1       4 Teac… Bruce … David… 3/24/1…    2.98     6.9  3800
 5           5      1       5 Neve… David … Rob D… 3/31/1…    4.09     7.4  3611
 6           6      1       6 The … Bruce … Matt … 4/7/19…    3.42     7.4  3770
 7           7      1       7 Angel Scott … David… 4/14/1…    3.39     8.5  3918
 8           8      1       8 I, R… Stephe… Ashle… 4/28/1…    2.47     6.7  3629
 9           9      1       9 The … Ellen … Rob D… 5/5/19…    2.56     7.7  3666
10          10      1      10 Nigh… Bruce … Joss … 5/12/1…    3.47     8.2  3614
# … with 134 more rows, 5 more variables: plot <chr>, runtime <dbl>,
#   deathcount <dbl>, `neilsen rating` <chr>, `vox ep rank` <dbl>, and
#   abbreviated variable names ¹​`no overall`, ²​`no in season`, ³​director,
#   ⁴​air_date, ⁵​views_mil, ⁶​imdb_rating
…
Navigate to the access data page for the dataset - britishelectionstudy.com/data-object/2019-british-election-study-post-election-random-probability-survey/

Download the SPSS dataset

Unzip the dataset and add the folder to the data folder in your RStudio project

📝 Task: Obtain British Election Survey Data

SLIDE 2 OF 2

Setup the british-election-survey.Rmd for data wrangling

Read in the SPSS file

# A tibble: 3,946 × 415
   finalser…¹ agency    Y10A Y10B1    Y10B2   Y10B3   Y10B4   Y10B5   a01       
        <dbl> <dbl+lb> <dbl> <dbl+lb> <dbl+l> <dbl+l> <dbl+l> <dbl+l> <chr+lbl> 
 1      10102  1 [Ips…    NA NA       NA      NA      NA      NA      "-2" [Ref…
 2      10103 NA           2  1 [Yes]  0 [No]  0 [No]  0 [No]  0 [No] ""        
 3      10105 NA           2  1 [Yes]  0 [No]  0 [No]  0 [No]  0 [No] ""        
 4      10110  1 [Ips…    NA NA       NA      NA      NA      NA      "-1" [Don…
 5      10111  1 [Ips…    NA NA       NA      NA      NA      NA      "-1" [Don…
 6      10202 NA           2  1 [Yes]  0 [No]  0 [No]  0 [No]  0 [No] ""        
 7      10206 NA           3  1 [Yes]  0 [No]  0 [No]  0 [No]  0 [No] ""        
 8      10208 NA           2  1 [Yes]  0 [No]  0 [No]  0 [No]  0 [No] ""        
 9      10210 NA           2  1 [Yes]  0 [No]  0 [No]  0 [No]  0 [No] ""        
10      10304 NA           2  1 [Yes]  0 [No]  0 [No]  0 [No]  0 [No] ""        
# … with 3,936 more rows, 406 more variables: a01_code <dbl+lbl>,
#   a02 <dbl+lbl>, a03 <dbl+lbl>, m02_1 <dbl+lbl>, m02_2 <dbl+lbl>,
#   m02_3 <dbl+lbl>, m02_4 <dbl+lbl>, m02_5 <dbl+lbl>, m02_6 <dbl+lbl>,
#   b01 <dbl+lbl>, b02 <dbl+lbl>, b04 <dbl+lbl>, b05 <dbl+lbl>,
#   b0601 <dbl+lbl>, b0602 <dbl+lbl>, b0603 <dbl+lbl>, b0604 <dbl+lbl>,
#   b0605 <dbl+lbl>, b0606 <dbl+lbl>, b0607 <dbl+lbl>, b0608 <dbl+lbl>,
#   b0609 <dbl+lbl>, b0610 <dbl+lbl>, b0611 <dbl+lbl>, b0612 <dbl+lbl>, …
…
This is an open-ended question that’s going to be really messy to handle.

To properly analyse this we might need to use the {tidytext} package for text mining with a tidyverse approach.

But let’s see what we can do by pretending it’s multiple choice data and using

separate() … ?

separate_rows() … ?

british_election_data_raw %>% 
  select(finalserialno, k04)

# A tibble: 3,946 × 2
   finalserialno k04                                                          
           <dbl> <chr+lbl>                                                    
 1         10102 "family"                                                     
 2         10103 "-2" [Refused]                                               
 3         10105 "Media- cross referencing and watching parliamentary debates"
 4         10110 "parents"                                                    
 5         10111 "tv radio"                                                   
 6         10202 ""                                                           
 7         10206 "News, internet and conversation"                            
 8         10208 ""                                                           
 9         10210 "Mail on line \nNews on tv"                                  
10         10304 "t v .     papers.       radio."                             
# … with 3,936 more rows
…
